<?xml version="1.0" encoding="UTF-8" standalone="no"?>
<!-- Created with Inkscape (http://www.inkscape.org/) -->

<svg
   xmlns:dc="http://purl.org/dc/elements/1.1/"
   xmlns:cc="http://creativecommons.org/ns#"
   xmlns:rdf="http://www.w3.org/1999/02/22-rdf-syntax-ns#"
   xmlns:svg="http://www.w3.org/2000/svg"
   xmlns="http://www.w3.org/2000/svg"
   xmlns:xlink="http://www.w3.org/1999/xlink"
   xmlns:sodipodi="http://sodipodi.sourceforge.net/DTD/sodipodi-0.dtd"
   xmlns:inkscape="http://www.inkscape.org/namespaces/inkscape"
   width="1920"
   height="1080"
   viewBox="0 0 507.99999 285.75001"
   version="1.1"
   id="svg8"
   inkscape:version="0.92.4 (5da689c313, 2019-01-14)"
   sodipodi:docname="6.svg">
  <defs
     id="defs2">
    <inkscape:path-effect
       effect="bspline"
       id="path-effect10907"
       is_visible="true"
       weight="33.333333"
       steps="2"
       helper_size="0"
       apply_no_weight="true"
       apply_with_weight="true"
       only_selected="false" />
    <inkscape:perspective
       sodipodi:type="inkscape:persp3d"
       inkscape:vp_x="0 : 142.875 : 1"
       inkscape:vp_y="0 : 1000 : 0"
       inkscape:vp_z="507.99999 : 142.875 : 1"
       inkscape:persp3d-origin="254 : 95.250003 : 1"
       id="perspective9456" />
    <inkscape:path-effect
       effect="bspline"
       id="path-effect4268"
       is_visible="true"
       weight="33.333333"
       steps="2"
       helper_size="0"
       apply_no_weight="true"
       apply_with_weight="true"
       only_selected="false" />
    <linearGradient
       id="linearGradient4094">
      <stop
         style="stop-color:#232323;stop-opacity:1;"
         offset="0"
         id="stop4096" />
      <stop
         style="stop-color:#4d4d4d;stop-opacity:1;"
         offset="1"
         id="stop4098" />
    </linearGradient>
    <linearGradient
       id="linearGradient4014">
      <stop
         style="stop-color:#a0a0a0;stop-opacity:1;"
         offset="0"
         id="stop4016" />
      <stop
         style="stop-color:#ffffff;stop-opacity:1;"
         offset="1"
         id="stop4018" />
    </linearGradient>
    <linearGradient
       id="linearGradient4678">
      <stop
         style="stop-color:#e5e5e5;stop-opacity:1;"
         offset="0"
         id="stop4680" />
      <stop
         style="stop-color:#d3cdcd;stop-opacity:1;"
         offset="1"
         id="stop4682" />
    </linearGradient>
    <linearGradient
       id="linearGradient4341">
      <stop
         id="stop4343"
         offset="0"
         style="stop-color:#333333;stop-opacity:1;" />
      <stop
         id="stop4345"
         offset="1"
         style="stop-color:#484848;stop-opacity:1;" />
    </linearGradient>
    <linearGradient
       id="linearGradient4696-5">
      <stop
         id="stop4698-6"
         offset="0"
         style="stop-color:#ffb638;stop-opacity:1;" />
      <stop
         id="stop4700-2"
         offset="1"
         style="stop-color:#f0ae26;stop-opacity:1;" />
    </linearGradient>
    <linearGradient
       id="linearGradient4702-3">
      <stop
         id="stop4704-1"
         offset="0"
         style="stop-color:#e34646;stop-opacity:1;" />
      <stop
         id="stop4706-8"
         offset="1"
         style="stop-color:#ffbf2d;stop-opacity:1;" />
    </linearGradient>
    <color-profile
       name="Artifex-PS-CMYK-Profile"
       xlink:href="/usr/share/color/icc/ghostscript/ps_cmyk.icc"
       id="color-profile23" />
    <clipPath
       id="clipPath4501"
       clipPathUnits="userSpaceOnUse">
      <path
         style="clip-rule:evenodd"
         inkscape:connector-curvature="0"
         id="path4499"
         d="M 0,0 H 124.992 V 144 H 0 Z" />
    </clipPath>
    <clipPath
       id="clipPath4525"
       clipPathUnits="userSpaceOnUse">
      <path
         inkscape:connector-curvature="0"
         id="path4523"
         d="M 0,0 H 100 V 125 H 0 Z" />
    </clipPath>
    <clipPath
       id="clipPath4545"
       clipPathUnits="userSpaceOnUse">
      <path
         inkscape:connector-curvature="0"
         id="path4543"
         d="M 0,0 H 100 V 125 H 0 Z" />
    </clipPath>
    <clipPath
       id="clipPath4561"
       clipPathUnits="userSpaceOnUse">
      <path
         inkscape:connector-curvature="0"
         id="path4559"
         d="M 0,0 H 100 V 125 H 0 Z" />
    </clipPath>
    <clipPath
       id="clipPath4577"
       clipPathUnits="userSpaceOnUse">
      <path
         inkscape:connector-curvature="0"
         id="path4575"
         d="M 0,0 H 100 V 125 H 0 Z" />
    </clipPath>
    <clipPath
       id="clipPath4593"
       clipPathUnits="userSpaceOnUse">
      <path
         inkscape:connector-curvature="0"
         id="path4591"
         d="M 0,0 H 100 V 125 H 0 Z" />
    </clipPath>
    <clipPath
       id="clipPath4609"
       clipPathUnits="userSpaceOnUse">
      <path
         inkscape:connector-curvature="0"
         id="path4607"
         d="M 0,0 H 100 V 125 H 0 Z" />
    </clipPath>
    <clipPath
       id="clipPath4625"
       clipPathUnits="userSpaceOnUse">
      <path
         inkscape:connector-curvature="0"
         id="path4623"
         d="M 0,0 H 100 V 125 H 0 Z" />
    </clipPath>
    <clipPath
       id="clipPath4641"
       clipPathUnits="userSpaceOnUse">
      <path
         inkscape:connector-curvature="0"
         id="path4639"
         d="M 0,0 H 100 V 125 H 0 Z" />
    </clipPath>
    <clipPath
       id="clipPath4657"
       clipPathUnits="userSpaceOnUse">
      <path
         inkscape:connector-curvature="0"
         id="path4655"
         d="M 0,0 H 100 V 125 H 0 Z" />
    </clipPath>
    <clipPath
       id="clipPath4673"
       clipPathUnits="userSpaceOnUse">
      <path
         inkscape:connector-curvature="0"
         id="path4671"
         d="M 0,0 H 100 V 125 H 0 Z" />
    </clipPath>
    <style
       id="style3894"
       type="text/css"><![CDATA[
    line, polyline, path, rect, circle {
      fill: none;
      stroke: #000000;
      stroke-linecap: round;
      stroke-linejoin: round;
      stroke-miterlimit: 10.00;
    }
  ]]></style>
    <clipPath
       id="cpNzMuMDYyM3w1NDYuMzIzfDM5My4wNzJ8MzEuMDU2Nw==">
      <rect
         id="rect3902"
         height="362.02"
         width="473.26"
         y="31.06"
         x="73.06" />
    </clipPath>
    <clipPath
       id="cpMHw3MDguNjYxfDUwMy40MjV8MA==">
      <rect
         id="rect3995"
         height="503.43"
         width="708.66"
         y="0.00"
         x="0.00" />
    </clipPath>
    <marker
       inkscape:stockid="Arrow2Send"
       orient="auto"
       refY="0"
       refX="0"
       id="Arrow2Send-3-3"
       style="overflow:visible"
       inkscape:isstock="true">
      <path
         inkscape:connector-curvature="0"
         id="path6389-4-7"
         style="fill:#ffbf2d;fill-opacity:1;fill-rule:evenodd;stroke:#ffbf2d;stroke-width:0.625;stroke-linejoin:round;stroke-opacity:1"
         d="M 8.7185878,4.0337352 -2.2072895,0.01601326 8.7185884,-4.0017078 c -1.7454984,2.3720609 -1.7354408,5.6174519 -6e-7,8.035443 z"
         transform="matrix(-0.3,0,0,-0.3,0.69,0)" />
    </marker>
    <marker
       inkscape:stockid="Arrow2Send"
       orient="auto"
       refY="0"
       refX="0"
       id="Arrow2Send-3-3-6"
       style="overflow:visible"
       inkscape:isstock="true">
      <path
         inkscape:connector-curvature="0"
         id="path6389-4-7-3"
         style="fill:#ffbf2d;fill-opacity:1;fill-rule:evenodd;stroke:#ffbf2d;stroke-width:0.625;stroke-linejoin:round;stroke-opacity:1"
         d="M 8.7185878,4.0337352 -2.2072895,0.01601326 8.7185884,-4.0017078 c -1.7454984,2.3720609 -1.7354408,5.6174519 -6e-7,8.035443 z"
         transform="matrix(-0.3,0,0,-0.3,0.69,0)" />
    </marker>
    <inkscape:path-effect
       effect="bspline"
       id="path-effect10907-2"
       is_visible="true"
       weight="33.333333"
       steps="2"
       helper_size="0"
       apply_no_weight="true"
       apply_with_weight="true"
       only_selected="false" />
    <inkscape:path-effect
       effect="bspline"
       id="path-effect10907-7"
       is_visible="true"
       weight="33.333333"
       steps="2"
       helper_size="0"
       apply_no_weight="true"
       apply_with_weight="true"
       only_selected="false" />
    <inkscape:path-effect
       effect="bspline"
       id="path-effect10907-1"
       is_visible="true"
       weight="33.333333"
       steps="2"
       helper_size="0"
       apply_no_weight="true"
       apply_with_weight="true"
       only_selected="false" />
    <clipPath
       id="clipPath8">
      <path
         inkscape:connector-curvature="0"
         id="path10"
         d="M 76,2 V 48 H 54 V 71 H 35.580737 c -0.07818,0.665694 -0.141485,1.332869 -0.205737,2 -1.151162,12.530963 1.036422,24.087546 6.0625,33.96875 L 43.125,110 c 1.011403,1.81678 2.191241,3.52297 3.4375,5.1875 1.244725,1.66248 1.685716,2.58262 2.46875,3.6875 C 62.319911,133.81083 82.129473,141 105,141 155.64836,141 198.63299,118.56201 217.65625,68.15625 231.15302,69.54122 244.09968,66.080358 250,54.5625 240.60137,49.138835 228.52163,50.877226 221.5625,54.375 L 240,2 168,48 H 145 V 2 Z" />
    </clipPath>
    <clipPath
       id="clipPath24989">
      <path
         inkscape:connector-curvature="0"
         id="path24987"
         d="M 76,2 V 48 H 54 V 71 H 35.580737 c -0.07818,0.665694 -0.141485,1.332869 -0.205737,2 -1.151162,12.530963 1.036422,24.087546 6.0625,33.96875 L 43.125,110 c 1.011403,1.81678 2.191241,3.52297 3.4375,5.1875 1.244725,1.66248 1.685716,2.58262 2.46875,3.6875 C 62.319911,133.81083 82.129473,141 105,141 155.64836,141 198.63299,118.56201 217.65625,68.15625 231.15302,69.54122 244.09968,66.080358 250,54.5625 240.60137,49.138835 228.52163,50.877226 221.5625,54.375 L 240,2 168,48 H 145 V 2 Z" />
    </clipPath>
    <clipPath
       id="clipPath24993">
      <path
         inkscape:connector-curvature="0"
         id="path24991"
         d="M 76,2 V 48 H 54 V 71 H 35.580737 c -0.07818,0.665694 -0.141485,1.332869 -0.205737,2 -1.151162,12.530963 1.036422,24.087546 6.0625,33.96875 L 43.125,110 c 1.011403,1.81678 2.191241,3.52297 3.4375,5.1875 1.244725,1.66248 1.685716,2.58262 2.46875,3.6875 C 62.319911,133.81083 82.129473,141 105,141 155.64836,141 198.63299,118.56201 217.65625,68.15625 231.15302,69.54122 244.09968,66.080358 250,54.5625 240.60137,49.138835 228.52163,50.877226 221.5625,54.375 L 240,2 168,48 H 145 V 2 Z" />
    </clipPath>
    <clipPath
       id="clipPath24997">
      <path
         inkscape:connector-curvature="0"
         id="path24995"
         d="M 76,2 V 48 H 54 V 71 H 35.580737 c -0.07818,0.665694 -0.141485,1.332869 -0.205737,2 -1.151162,12.530963 1.036422,24.087546 6.0625,33.96875 L 43.125,110 c 1.011403,1.81678 2.191241,3.52297 3.4375,5.1875 1.244725,1.66248 1.685716,2.58262 2.46875,3.6875 C 62.319911,133.81083 82.129473,141 105,141 155.64836,141 198.63299,118.56201 217.65625,68.15625 231.15302,69.54122 244.09968,66.080358 250,54.5625 240.60137,49.138835 228.52163,50.877226 221.5625,54.375 L 240,2 168,48 H 145 V 2 Z" />
    </clipPath>
    <clipPath
       id="clipPath25001">
      <path
         inkscape:connector-curvature="0"
         id="path24999"
         d="M 76,2 V 48 H 54 V 71 H 35.580737 c -0.07818,0.665694 -0.141485,1.332869 -0.205737,2 -1.151162,12.530963 1.036422,24.087546 6.0625,33.96875 L 43.125,110 c 1.011403,1.81678 2.191241,3.52297 3.4375,5.1875 1.244725,1.66248 1.685716,2.58262 2.46875,3.6875 C 62.319911,133.81083 82.129473,141 105,141 155.64836,141 198.63299,118.56201 217.65625,68.15625 231.15302,69.54122 244.09968,66.080358 250,54.5625 240.60137,49.138835 228.52163,50.877226 221.5625,54.375 L 240,2 168,48 H 145 V 2 Z" />
    </clipPath>
    <filter
       inkscape:label="Torn Edges"
       inkscape:menu="Distort"
       inkscape:menu-tooltip="Displace the outside of shapes and pictures without altering their content"
       height="1.4"
       y="-0.2"
       width="1.4"
       x="-0.2"
       style="color-interpolation-filters:sRGB;"
       id="filter33308">
      <feTurbulence
         baseFrequency="0.05"
         numOctaves="5"
         type="fractalNoise"
         result="result91"
         id="feTurbulence33302" />
      <feDisplacementMap
         scale="25"
         result="result5"
         xChannelSelector="R"
         in="SourceGraphic"
         in2="result91"
         id="feDisplacementMap33304" />
      <feComposite
         in="SourceGraphic"
         operator="atop"
         in2="result5"
         id="feComposite33306" />
    </filter>
    <linearGradient
       id="linearGradient4702-3-6">
      <stop
         style="stop-color:#ff0000;stop-opacity:0.58431375;"
         offset="0"
         id="stop4704-1-2" />
      <stop
         style="stop-color:#ffcc00;stop-opacity:1;"
         offset="1"
         id="stop4706-8-9" />
    </linearGradient>
    <linearGradient
       inkscape:collect="always"
       xlink:href="#linearGradient4702-3-6"
       id="linearGradient3940"
       gradientUnits="userSpaceOnUse"
       gradientTransform="matrix(-0.23495877,0,0,0.23495877,-18.473974,136.31344)"
       x1="142.96875"
       y1="63.65625"
       x2="177.04297"
       y2="69.791016" />
    <linearGradient
       inkscape:collect="always"
       xlink:href="#linearGradient4696-5"
       id="linearGradient3943"
       gradientUnits="userSpaceOnUse"
       gradientTransform="matrix(-0.1315688,0,0,0.1315688,-29.12606,34.653057)"
       x1="108.08774"
       y1="1025.709"
       x2="80.655251"
       y2="1043.709" />
    <linearGradient
       inkscape:collect="always"
       xlink:href="#linearGradient4702-3-6"
       id="linearGradient3946"
       gradientUnits="userSpaceOnUse"
       gradientTransform="matrix(0.23495877,0,0,0.23495877,-66.200211,-63.956694)"
       x1="113.5146"
       y1="1004.8033"
       x2="78.000107"
       y2="922.07178" />
    <linearGradient
       inkscape:collect="always"
       xlink:href="#linearGradient4702-3-6"
       id="linearGradient3950"
       gradientUnits="userSpaceOnUse"
       gradientTransform="matrix(0.23495877,0,0,0.23495877,-66.192614,136.31351)"
       x1="142.96875"
       y1="63.65625"
       x2="176.60477"
       y2="70.667412" />
  </defs>
  <sodipodi:namedview
     id="base"
     pagecolor="#ffffff"
     bordercolor="#f70bff"
     borderopacity="1"
     inkscape:pageopacity="0.0"
     inkscape:pageshadow="2"
     inkscape:zoom="0.25"
     inkscape:cx="388.58355"
     inkscape:cy="553.37524"
     inkscape:document-units="px"
     inkscape:current-layer="layer1"
     showgrid="false"
     units="px"
     borderlayer="true"
     inkscape:showpageshadow="false"
     inkscape:pagecheckerboard="true"
     inkscape:window-width="1269"
     inkscape:window-height="614"
     inkscape:window-x="43"
     inkscape:window-y="27"
     inkscape:window-maximized="1"
     showguides="false" />
  <metadata
     id="metadata5">
    <rdf:RDF>
      <cc:Work
         rdf:about="">
        <dc:format>image/svg+xml</dc:format>
        <dc:type
           rdf:resource="http://purl.org/dc/dcmitype/StillImage" />
        <dc:title />
        <cc:license
           rdf:resource="http://creativecommons.org/licenses/by-sa/4.0/" />
      </cc:Work>
      <cc:License
         rdf:about="http://creativecommons.org/licenses/by-sa/4.0/">
        <cc:permits
           rdf:resource="http://creativecommons.org/ns#Reproduction" />
        <cc:permits
           rdf:resource="http://creativecommons.org/ns#Distribution" />
        <cc:requires
           rdf:resource="http://creativecommons.org/ns#Notice" />
        <cc:requires
           rdf:resource="http://creativecommons.org/ns#Attribution" />
        <cc:permits
           rdf:resource="http://creativecommons.org/ns#DerivativeWorks" />
        <cc:requires
           rdf:resource="http://creativecommons.org/ns#ShareAlike" />
      </cc:License>
    </rdf:RDF>
  </metadata>
  <g
     inkscape:label="Layer 1"
     inkscape:groupmode="layer"
     id="layer1"
     transform="translate(0,-11.249975)">
    <rect
       style="color:#000000;clip-rule:nonzero;display:inline;overflow:visible;visibility:visible;opacity:1;isolation:auto;mix-blend-mode:normal;color-interpolation:sRGB;color-interpolation-filters:linearRGB;solid-color:#000000;solid-opacity:1;vector-effect:none;fill:#232323;fill-opacity:1;fill-rule:nonzero;stroke:none;stroke-width:0.3055087;stroke-linecap:round;stroke-linejoin:round;stroke-miterlimit:4;stroke-dasharray:none;stroke-dashoffset:0;stroke-opacity:1;color-rendering:auto;image-rendering:auto;shape-rendering:auto;text-rendering:auto;enable-background:accumulate"
       id="rect2926"
       width="512.95203"
       height="292.72192"
       x="-2.0354033"
       y="8.4516382" />
    <text
       xml:space="preserve"
       style="font-style:normal;font-variant:normal;font-weight:normal;font-stretch:normal;font-size:7.76111126px;line-height:1.25;font-family:'League Gothic';-inkscape-font-specification:'League Gothic';letter-spacing:0px;word-spacing:0px;fill:#000000;fill-opacity:1;stroke:none;stroke-width:0.26458335"
       x="125.33344"
       y="240.46848"
       id="text977"><tspan
         sodipodi:role="line"
         id="tspan975"
         x="125.33344"
         y="240.46848"
         style="font-style:normal;font-variant:normal;font-weight:normal;font-stretch:normal;font-size:31.75px;font-family:'League Gothic';-inkscape-font-specification:'League Gothic';fill:#ffffff;stroke-width:0.26458335">https://guix.gnu.org/manual</tspan></text>
    <g
       id="g1032"
       transform="matrix(3.2608696,0,0,3.2608696,392.04348,-424.49551)"
       style="opacity:0.93000004">
      <rect
         style="fill:#232323;fill-opacity:1;stroke:none;stroke-width:0.26458335;stroke-linecap:round;stroke-linejoin:round;stroke-miterlimit:10"
         id="rect4237"
         width="47.095833"
         height="54.768749"
         x="-65.881248"
         y="136.26559" />
      <g
         transform="matrix(0.26458334,0,0,0.26458334,-170.58649,-102.74897)"
         id="g3158">
        <path
           inkscape:connector-curvature="0"
           id="path3253"
           style="font-style:normal;font-weight:bold;font-size:40px;line-height:125%;font-family:Sans;-inkscape-font-specification:'Sans Bold';letter-spacing:0px;word-spacing:0px;fill:#ffffff;fill-opacity:1;stroke:none;stroke-linecap:round;stroke-linejoin:round;stroke-miterlimit:10"
           d="m 463.48633,1084.1942 c -1.87503,0.9115 -3.82164,1.5951 -5.83985,2.0508 -2.01825,0.4557 -4.10158,0.6836 -6.25,0.6836 -4.85678,0 -8.70443,-1.3542 -11.54296,-4.0625 -2.83855,-2.7214 -4.25782,-6.4063 -4.25782,-11.0547 0,-4.7005 1.44531,-8.3984 4.33594,-11.0937 2.89062,-2.6953 6.84895,-4.043 11.875,-4.043 1.94008,0 3.79555,0.1823 5.56641,0.5469 1.78383,0.3646 3.46351,0.9049 5.03906,1.6211 v 6.0351 c -1.62763,-0.9244 -3.24872,-1.6146 -4.86328,-2.0703 -1.60159,-0.4557 -3.20966,-0.6836 -4.82422,-0.6836 -2.99481,0 -5.306,0.8399 -6.93359,2.5195 -1.6146,1.6667 -2.42189,4.056 -2.42188,7.168 -1e-5,3.086 0.78124,5.4688 2.34375,7.1484 1.56249,1.6797 3.78254,2.5196 6.66016,2.5196 0.78123,0 1.50388,-0.046 2.16797,-0.1367 0.67706,-0.1042 1.28253,-0.2605 1.8164,-0.4688 v -5.6641 h -4.58984 v -5.039 h 11.71875 v 14.0234" />
        <path
           inkscape:connector-curvature="0"
           id="path3255"
           style="font-style:normal;font-weight:bold;font-size:40px;line-height:125%;font-family:Sans;-inkscape-font-specification:'Sans Bold';letter-spacing:0px;word-spacing:0px;fill:#ffffff;fill-opacity:1;stroke:none;stroke-linecap:round;stroke-linejoin:round;stroke-miterlimit:10"
           d="m 469.54102,1077.8466 v -13.3594 h 7.03125 v 2.1875 c -10e-6,1.1849 -0.007,2.6758 -0.0195,4.4726 -0.013,1.7839 -0.0195,2.9753 -0.0195,3.5743 -1e-5,1.7578 0.0456,3.0273 0.13672,3.8086 0.0911,0.7682 0.24739,1.3281 0.46875,1.6796 0.28645,0.4558 0.65754,0.8073 1.11328,1.0547 0.46874,0.2474 1.00259,0.3711 1.60157,0.3711 1.45831,0 2.60415,-0.5599 3.4375,-1.6797 0.83331,-1.1198 1.24998,-2.6757 1.25,-4.6679 v -10.8008 h 6.99218 v 21.875 h -6.99218 v -3.1641 c -1.05471,1.2761 -2.1745,2.2201 -3.35938,2.8321 -1.17189,0.5989 -2.46746,0.8984 -3.88672,0.8984 -2.52605,0 -4.45313,-0.7748 -5.78125,-2.3242 -1.31511,-1.5495 -1.97266,-3.8021 -1.97265,-6.7578" />
        <path
           inkscape:connector-curvature="0"
           id="path3257"
           style="font-style:normal;font-weight:bold;font-size:40px;line-height:125%;font-family:Sans;-inkscape-font-specification:'Sans Bold';letter-spacing:0px;word-spacing:0px;fill:#ffffff;fill-opacity:1;stroke:none;stroke-linecap:round;stroke-linejoin:round;stroke-miterlimit:10"
           d="m 498.29102,1064.4872 h 6.99218 v 21.875 h -6.99218 v -21.875 m 0,-8.5156 h 6.99218 v 5.7031 h -6.99218 v -5.7031" />
        <path
           inkscape:connector-curvature="0"
           id="path3259"
           style="font-style:normal;font-weight:bold;font-size:40px;line-height:125%;font-family:Sans;-inkscape-font-specification:'Sans Bold';letter-spacing:0px;word-spacing:0px;fill:#ffffff;fill-opacity:1;stroke:none;stroke-linecap:round;stroke-linejoin:round;stroke-miterlimit:10"
           d="m 517.56836,1075.1708 -7.89063,-10.6836 h 7.40235 l 4.47265,6.4844 4.53125,-6.4844 h 7.40235 l -7.89063,10.6445 8.28125,11.2305 h -7.40234 l -4.92188,-6.9141 -4.86328,6.9141 h -7.40234 l 8.28125,-11.1914" />
      </g>
      <path
         id="path3324"
         d="m -23.048282,147.47402 c -0.423744,0.77443 -0.853933,1.40492 -1.292276,1.9017 -0.423738,0.48219 -0.891008,0.86789 -1.402408,1.16011 -0.4968,0.27763 -1.060471,0.47786 -1.688766,0.59474 -0.613688,0.10228 -1.318335,0.15421 -2.121972,0.15418 -0.59281,0 -1.125569,-0.0304 -1.593316,-0.0881 -0.0019,0 -0.0054,0 -0.0074,0 -0.0593,-0.004 -0.181777,-0.0242 -0.308382,-0.0441 -0.133353,-0.0209 -0.269664,-0.041 -0.484606,-0.0808 -3.939895,-0.72897 -5.246566,2.00617 -5.528874,2.76078 -0.04419,0.1181 -0.06608,0.19088 -0.06608,0.19088 l -4.787289,13.3486 -2.936981,4.9929 h 5.866625 c 2.409481,-5.3648 4.725958,-16.56635 7.202956,-17.55583 0.536884,0.0751 1.20237,0.11012 2.004491,0.11012 1.052039,0 1.993985,-0.12612 2.826851,-0.38914 0.832855,-0.26301 1.581999,-0.67095 2.254136,-1.2262 0.672132,-0.56985 1.280297,-1.29666 1.820931,-2.17337 0.555236,-0.87669 1.081821,-1.92987 1.578626,-3.15725 l -1.336315,-0.49929 z"
         style="font-style:normal;font-weight:bold;font-size:144px;line-height:125%;font-family:Sans;-inkscape-font-specification:'Sans Bold';letter-spacing:0px;word-spacing:0px;fill:#ffbf2d;fill-opacity:1;stroke:none;stroke-width:0.26458335;stroke-linecap:round;stroke-linejoin:round;stroke-miterlimit:10"
         inkscape:connector-curvature="0" />
      <path
         inkscape:connector-curvature="0"
         id="path3326"
         d="m -23.048433,147.47457 c -0.423744,0.77443 -0.853901,1.40405 -1.292249,1.90083 -0.42373,0.48219 -0.891186,0.86807 -1.402585,1.16029 -0.123032,0.0688 -0.249873,0.13194 -0.381077,0.19111 -0.0013,5.3e-4 -0.0021,0.002 -0.0034,0.002 -0.165147,0.11614 -0.377565,0.21584 -0.665464,0.28438 -3.320494,0.79061 -5.58219,3.74974 -5.794629,4.036 0.09632,-0.0792 0.193283,-0.14385 0.290073,-0.19339 0.01455,-0.008 0.02866,-0.0147 0.04323,-0.0216 0.0024,-0.001 0.0045,-0.002 0.0068,-0.003 0.01688,-0.008 0.0343,-0.0149 0.05119,-0.0216 0.536882,0.0751 1.202224,0.11035 2.004346,0.11035 1.052039,0 1.993924,-0.12716 2.826787,-0.39018 0.832858,-0.26301 1.58133,-0.66988 2.25347,-1.22513 0.672131,-0.56984 1.28057,-1.29713 1.821203,-2.17384 0.555236,-0.87669 1.082104,-1.93043 1.578904,-3.15781 l -1.336611,-0.49825 z"
         style="font-style:normal;font-weight:bold;font-size:144px;line-height:125%;font-family:Sans;-inkscape-font-specification:'Sans Bold';letter-spacing:0px;word-spacing:0px;fill:url(#linearGradient3950);fill-opacity:1;stroke:none;stroke-width:0.26458335;stroke-linecap:round;stroke-linejoin:round;stroke-miterlimit:10" />
      <path
         id="path3328"
         d="m -61.618275,147.47403 c 0.423743,0.77442 0.853926,1.40491 1.292272,1.90169 0.423738,0.48219 0.891008,0.86789 1.402411,1.16011 0.496795,0.27763 1.060468,0.47786 1.688764,0.59474 0.61369,0.10231 1.318334,0.15421 2.121972,0.15418 0.592812,0 1.125569,-0.0304 1.593312,-0.0881 0.0019,0 0.0055,0 0.0074,0 0.0593,-0.004 0.181774,-0.0242 0.308382,-0.0441 0.133353,-0.0209 0.269664,-0.041 0.484603,-0.0808 3.939897,-0.72897 5.246569,2.00617 5.528877,2.76078 0.04419,0.1181 0.06608,0.19088 0.06608,0.19088 l 4.787284,13.3486 2.936986,4.9929 h -5.866625 c -2.409481,-5.3648 -4.725956,-16.56635 -7.202956,-17.55583 -0.536884,0.0751 -1.202372,0.11012 -2.004494,0.11012 -1.052036,0 -1.993984,-0.12612 -2.826848,-0.38914 -0.832903,-0.263 -1.582047,-0.67095 -2.254181,-1.22619 -0.672129,-0.56985 -1.280298,-1.29666 -1.820929,-2.17337 -0.555238,-0.87668 -1.081828,-1.92987 -1.578631,-3.15726 l 1.336329,-0.49928 z"
         style="font-style:normal;font-weight:bold;font-size:144px;line-height:125%;font-family:Sans;-inkscape-font-specification:'Sans Bold';letter-spacing:0px;word-spacing:0px;fill:#ffbf2d;fill-opacity:1;stroke:none;stroke-width:0.26458335;stroke-linecap:round;stroke-linejoin:round;stroke-miterlimit:10"
         inkscape:connector-curvature="0" />
      <path
         inkscape:connector-curvature="0"
         style="font-style:normal;font-weight:bold;font-size:144px;line-height:125%;font-family:Sans;-inkscape-font-specification:'Sans Bold';letter-spacing:0px;word-spacing:0px;fill:url(#linearGradient3946);fill-opacity:1;stroke:none;stroke-width:0.26458335;stroke-linecap:round;stroke-linejoin:round;stroke-miterlimit:10"
         d="m -61.618514,147.47383 c 0.423744,0.77443 0.853927,1.40491 1.292273,1.9017 0.423738,0.48219 0.891008,0.86788 1.402408,1.16011 0.496798,0.27763 1.060471,0.47785 1.688767,0.59473 0.61369,0.10231 1.318334,0.15422 2.121974,0.15419 0.59281,0 1.125567,-0.0304 1.593313,-0.0881 0.0019,0 0.0054,0 0.0074,0 0.0593,-0.004 0.181777,-0.0242 0.308386,-0.0441 0.13335,-0.0209 0.269663,-0.041 0.4846,-0.0808 3.9399,-0.72898 5.246568,2.00616 5.528876,2.76077 0.04418,0.11811 0.06608,0.19089 0.06608,0.19089 l 4.787286,13.34861 2.467068,4.99289 h -5.396709 c -2.409479,-5.36482 -4.725956,-16.56636 -7.202956,-17.55584 -0.536882,0.0751 -1.202373,0.11012 -2.004494,0.11012 -1.052034,0 -1.993982,-0.12612 -2.826846,-0.38914 -0.832903,-0.26301 -1.582047,-0.67095 -2.254181,-1.2262 -0.672129,-0.56984 -1.280297,-1.29666 -1.820929,-2.17337 -0.555238,-0.87668 -1.081828,-1.92986 -1.578631,-3.15725 l 1.336329,-0.49929 z"
         id="path3330"
         sodipodi:nodetypes="ccccccccsscccccccccccc" />
      <path
         sodipodi:nodetypes="ccc"
         d="m -42.338204,167.37 -2.925458,4.99499 h 5.863693"
         style="font-style:normal;font-weight:bold;font-size:144px;line-height:125%;font-family:Sans;-inkscape-font-specification:'Sans Bold';letter-spacing:0px;word-spacing:0px;fill:url(#linearGradient3943);fill-opacity:1;stroke:none;stroke-width:0.26458335;stroke-linecap:round;stroke-linejoin:round;stroke-miterlimit:10"
         id="path3332"
         inkscape:connector-curvature="0" />
      <path
         inkscape:connector-curvature="0"
         id="path3334"
         d="m -61.617879,147.47457 -1.336611,0.49824 c 0.15525,0.38356 0.313322,0.75054 0.474356,1.10001 0.0322,0.0699 0.06425,0.1385 0.09669,0.20703 1.27e-4,2.5e-4 -1.25e-4,7.9e-4 0,10e-4 0.03229,0.0682 0.06531,0.13562 0.09783,0.20248 0.01082,0.0223 0.02212,0.0438 0.03299,0.066 0.05454,0.11112 0.108632,0.22142 0.163806,0.32875 2.51e-4,5.3e-4 7.93e-4,5.3e-4 0.0011,10e-4 0.03289,0.064 0.06585,0.12737 0.09897,0.18997 0.133551,0.2525 0.268927,0.49415 0.406103,0.72461 0.03425,0.0576 0.0679,0.11332 0.102378,0.16949 0.01336,0.0218 0.02641,0.0433 0.03982,0.0648 0.02132,0.0344 0.04342,0.0686 0.06484,0.10238 0.03379,0.0548 0.06692,0.10905 0.10124,0.16267 0.05468,0.0854 0.111213,0.16895 0.16722,0.2514 0.01413,0.0208 0.02786,0.0419 0.04209,0.0626 0.03554,0.0515 0.07086,0.10209 0.106928,0.15243 0.07177,0.10016 0.144563,0.19807 0.218409,0.29348 0.03693,0.0477 0.07404,0.0945 0.111479,0.14106 0.07488,0.093 0.150574,0.18364 0.22751,0.27187 0.05833,0.0669 0.117951,0.13267 0.177456,0.1968 0.01878,0.0202 0.03796,0.0403 0.05687,0.0603 0.07916,0.0836 0.158824,0.16468 0.240022,0.24343 0.0405,0.0393 0.08071,0.078 0.121716,0.11603 0.0412,0.0383 0.08228,0.0756 0.123992,0.11262 0.04151,0.0368 0.08312,0.0725 0.125129,0.10806 0.126027,0.10411 0.255281,0.20313 0.386766,0.2969 0.350623,0.25004 0.72078,0.46353 1.111377,0.64043 0.04882,0.0221 0.09728,0.0439 0.14674,0.0648 0.09924,0.0421 0.199618,0.0819 0.301451,0.11945 0.05075,0.0187 0.101028,0.0359 0.152431,0.0535 0.0514,0.0176 0.103789,0.0348 0.155843,0.0512 0.05205,0.0164 0.104073,0.0324 0.15698,0.0478 0.105812,0.0307 0.213833,0.0599 0.323061,0.0864 0.05461,0.0133 0.109477,0.0254 0.164941,0.0375 0.05547,0.0122 0.1109,0.0241 0.16722,0.0353 0.05668,0.0112 0.113085,0.0217 0.170632,0.0319 0.11435,0.0202 0.230312,0.0385 0.348086,0.0546 0.176662,0.0242 0.357095,0.0442 0.541469,0.0591 0.122918,0.01 0.247902,0.0179 0.374251,0.0239 0.126349,0.006 0.254704,0.009 0.38449,0.0114 0.06489,0.001 0.129902,0.001 0.195656,0.001 0.100264,0 0.198613,-4e-5 0.294622,-0.001 0.192024,-0.002 0.375378,-0.007 0.550571,-0.0136 0.08721,-0.003 0.172861,-0.007 0.255948,-0.0114 0.08344,-0.005 0.165261,-0.0102 0.24457,-0.0159 0.237924,-0.0172 0.457303,-0.039 0.658635,-0.0671 0.01688,0.007 0.03432,0.0137 0.05119,0.0216 0.0024,0.001 0.0045,0.002 0.0068,0.003 0.01458,0.007 0.02867,0.0139 0.04323,0.0216 0.09685,0.0496 0.193691,0.11412 0.290071,0.19338 -0.21199,-0.28568 -2.473751,-3.24533 -5.794632,-4.036 -0.287893,-0.0686 -0.500313,-0.16824 -0.665458,-0.28438 -0.0013,-5.3e-4 -0.0021,-0.002 -0.0034,-0.002 -0.130906,-0.059 -0.258303,-0.12253 -0.381077,-0.19111 -2.52e-4,-1.2e-4 -7.94e-4,1.3e-4 -0.0011,0 -0.03168,-0.0181 -0.06308,-0.0369 -0.09442,-0.0557 -2.52e-4,-1.2e-4 -7.94e-4,1.3e-4 -0.0011,0 -0.03162,-0.019 -0.06201,-0.0383 -0.09328,-0.058 -0.0628,-0.0396 -0.125138,-0.0803 -0.186555,-0.12285 -0.03059,-0.0212 -0.06076,-0.0429 -0.091,-0.0648 -0.06091,-0.0442 -0.120214,-0.0893 -0.179732,-0.13651 -0.02956,-0.0234 -0.05838,-0.0464 -0.08759,-0.0705 -0.02943,-0.0243 -0.05851,-0.0489 -0.08759,-0.0739 -0.02887,-0.0249 -0.05679,-0.0506 -0.08532,-0.0762 -0.142647,-0.1282 -0.281082,-0.26487 -0.415202,-0.41179 -0.02682,-0.0294 -0.05428,-0.0597 -0.08077,-0.0899 -0.09747,-0.11046 -0.194527,-0.2277 -0.291209,-0.3515 -0.01204,-0.0154 -0.02326,-0.031 -0.03526,-0.0466 -0.02715,-0.0353 -0.05482,-0.0706 -0.0819,-0.10693 -0.135418,-0.1817 -0.269798,-0.37714 -0.403804,-0.58586 -0.0536,-0.0835 -0.107008,-0.1692 -0.160393,-0.25709 -0.02669,-0.0439 -0.05299,-0.088 -0.07963,-0.13309 -0.07966,-0.13472 -0.159681,-0.27504 -0.238884,-0.41975 z"
         style="font-style:normal;font-weight:bold;font-size:144px;line-height:125%;font-family:Sans;-inkscape-font-specification:'Sans Bold';letter-spacing:0px;word-spacing:0px;fill:url(#linearGradient3940);fill-opacity:1;stroke:none;stroke-width:0.26458335;stroke-linecap:round;stroke-linejoin:round;stroke-miterlimit:10" />
    </g>
  </g>
  <style
     id="style10850"
     type="text/css">
	.st0{opacity:0.15;fill:#292F33;}
	.st1{fill:#FFFFFF;}
</style>
</svg>
